<?xml version="1.0" encoding="UTF-8" standalone="no"?><svg xmlns="http://www.w3.org/2000/svg" xmlns:xlink="http://www.w3.org/1999/xlink" contentStyleType="text/css" height="1028px" preserveAspectRatio="none" style="width:859px;height:1028px;background:#00000000;" version="1.1" viewBox="0 0 859 1028" width="859px" zoomAndPan="magnify"><defs/><g><ellipse cx="429" cy="20" fill="#222222" rx="10" ry="10" style="stroke:#222222;stroke-width:1.0;"/><rect fill="#F1F1F1" height="61.9063" rx="12.5" ry="12.5" style="stroke:#181818;stroke-width:0.5;" width="224" x="317" y="50"/><text fill="#000000" font-family="sans-serif" font-size="12" lengthAdjust="spacing" textLength="40" x="409" y="71.1387">Create</text><text fill="#000000" font-family="sans-serif" font-size="12" lengthAdjust="spacing" textLength="200" x="327" y="85.1074">EFI_VARIABLE_AUTHENTICATION_3</text><text fill="#000000" font-family="sans-serif" font-size="12" lengthAdjust="spacing" textLength="63" x="397.5" y="99.0762">descriptor</text><polygon fill="#F1F1F1" points="383.5,131.9063,474.5,131.9063,486.5,143.9063,474.5,155.9063,383.5,155.9063,371.5,143.9063,383.5,131.9063" style="stroke:#181818;stroke-width:0.5;"/><text fill="#000000" font-family="sans-serif" font-size="11" lengthAdjust="spacing" textLength="91" x="383.5" y="147.7144">Descriptor Type</text><rect fill="#F1F1F1" height="47.9375" rx="12.5" ry="12.5" style="stroke:#181818;stroke-width:0.5;" width="221" x="11" y="191.5156"/><text fill="#000000" font-family="sans-serif" font-size="12" lengthAdjust="spacing" textLength="201" x="21" y="212.6543">Create SecondaryDescriptor with</text><text fill="#000000" font-family="sans-serif" font-size="12" lengthAdjust="spacing" textLength="121" x="61" y="226.623">EFI_TIME TimeStamp</text><rect fill="#F1F1F1" height="47.9375" rx="12.5" ry="12.5" style="stroke:#181818;stroke-width:0.5;" width="267" x="439.5" y="191.5156"/><text fill="#000000" font-family="sans-serif" font-size="12" lengthAdjust="spacing" textLength="201" x="472.5" y="212.6543">Create SecondaryDescriptor with</text><text fill="#000000" font-family="sans-serif" font-size="12" lengthAdjust="spacing" textLength="247" x="449.5" y="226.623">EFI_VARIABLE_AUTHENTICATION_3_NONCE</text><polygon fill="#F1F1F1" points="429,249.4531,429,249.4531,441,261.4531,429,273.4531,429,273.4531,417,261.4531,429,249.4531" style="stroke:#181818;stroke-width:0.5;"/><rect fill="#F1F1F1" height="33.9688" rx="12.5" ry="12.5" style="stroke:#181818;stroke-width:0.5;" width="373" x="242.5" y="341.8555"/><text fill="#000000" font-family="sans-serif" font-size="12" lengthAdjust="spacing" textLength="353" x="252.5" y="362.9941">AditionalContentToHash ||= NonceBufferOfExistingVariable</text><polygon fill="#F1F1F1" points="229.5,293.4531,628.5,293.4531,640.5,305.4531,628.5,317.4531,229.5,317.4531,217.5,305.4531,229.5,293.4531" style="stroke:#181818;stroke-width:0.5;"/><text fill="#000000" font-family="sans-serif" font-size="11" lengthAdjust="spacing" textLength="21" x="433" y="327.6636">yes</text><text fill="#000000" font-family="sans-serif" font-size="11" lengthAdjust="spacing" textLength="399" x="229.5" y="309.2612">update or deletion of EFI_VARIABLE_AUTHENTICATION_3_NONCE_TYPE</text><text fill="#000000" font-family="sans-serif" font-size="11" lengthAdjust="spacing" textLength="14" x="640.5" y="302.8589">no</text><polygon fill="#F1F1F1" points="429,395.8242,441,407.8242,429,419.8242,417,407.8242,429,395.8242" style="stroke:#181818;stroke-width:0.5;"/><rect fill="#F1F1F1" height="33.9688" rx="12.5" ry="12.5" style="stroke:#181818;stroke-width:0.5;" width="241" x="308.5" y="488.2266"/><text fill="#000000" font-family="sans-serif" font-size="12" lengthAdjust="spacing" textLength="221" x="318.5" y="509.3652">AditionalContentToHash ||= NewCert</text><polygon fill="#F1F1F1" points="138,439.8242,720,439.8242,732,451.8242,720,463.8242,138,463.8242,126,451.8242,138,439.8242" style="stroke:#181818;stroke-width:0.5;"/><text fill="#000000" font-family="sans-serif" font-size="11" lengthAdjust="spacing" textLength="21" x="433" y="474.0347">yes</text><text fill="#000000" font-family="sans-serif" font-size="11" lengthAdjust="spacing" textLength="582" x="138" y="455.6323">EFI_VARIABLE_AUTHENTICATION_3.Flags == EFI_VARIABLE_ENHANCED_AUTH_FLAG_UPDATE_CERT 0x0</text><text fill="#000000" font-family="sans-serif" font-size="11" lengthAdjust="spacing" textLength="14" x="732" y="449.23">no</text><polygon fill="#F1F1F1" points="429,542.1953,441,554.1953,429,566.1953,417,554.1953,429,542.1953" style="stroke:#181818;stroke-width:0.5;"/><rect fill="#F1F1F1" height="33.9688" rx="12.5" ry="12.5" style="stroke:#181818;stroke-width:0.5;" width="724" x="67" y="586.1953"/><text fill="#000000" font-family="sans-serif" font-size="12" lengthAdjust="spacing" textLength="704" x="77" y="607.334">Hash(VariableName, VendorGuid, Attributes, SecondaryDescriptor, Variable_New_Content, AdditionalContentToHash)</text><rect fill="#F1F1F1" height="33.9688" rx="12.5" ry="12.5" style="stroke:#181818;stroke-width:0.5;" width="88" x="385" y="640.1641"/><text fill="#000000" font-family="sans-serif" font-size="12" lengthAdjust="spacing" textLength="68" x="395" y="661.3027">Sign digest</text><rect fill="#F1F1F1" height="33.9688" rx="12.5" ry="12.5" style="stroke:#181818;stroke-width:0.5;" width="474" x="192" y="694.1328"/><text fill="#000000" font-family="sans-serif" font-size="12" lengthAdjust="spacing" textLength="454" x="202" y="715.2715">Create WIN_CERTIFICATE_UEFI_GUID.CertType = EFI_CERT_TYPE_PKCS7_GUID</text><rect fill="#F1F1F1" height="47.9375" rx="12.5" ry="12.5" style="stroke:#181818;stroke-width:0.5;" width="305" x="276.5" y="748.1016"/><text fill="#000000" font-family="sans-serif" font-size="12" lengthAdjust="spacing" textLength="285" x="286.5" y="769.2402">Construct a DER-encoded SignedData structure</text><text fill="#000000" font-family="sans-serif" font-size="12" lengthAdjust="spacing" textLength="200" x="329" y="783.209">(PKCS#7 version 1.5 (RFC 2315))</text><rect fill="#F1F1F1" height="33.9688" rx="12.5" ry="12.5" style="stroke:#181818;stroke-width:0.5;" width="405" x="226.5" y="816.0391"/><text fill="#000000" font-family="sans-serif" font-size="12" lengthAdjust="spacing" textLength="385" x="236.5" y="837.1777">Update the EFI_VARIABLE_AUTHENTICATION_3.MetadataSize field</text><rect fill="#F1F1F1" height="75.875" rx="12.5" ry="12.5" style="stroke:#181818;stroke-width:0.5;" width="220" x="319" y="870.0078"/><text fill="#000000" font-family="sans-serif" font-size="12" lengthAdjust="spacing" textLength="138" x="360" y="891.1465">Concatenate serialized</text><text fill="#000000" font-family="sans-serif" font-size="12" lengthAdjust="spacing" textLength="200" x="329" y="905.1152">EFI_VARIABLE_AUTHENTICATION_3</text><text fill="#000000" font-family="sans-serif" font-size="12" lengthAdjust="spacing" textLength="22" x="418" y="919.084">and</text><text fill="#000000" font-family="sans-serif" font-size="12" lengthAdjust="spacing" textLength="133" x="362.5" y="933.0527">Variable_New_Content</text><ellipse cx="429" cy="975.8828" fill="none" rx="10" ry="10" style="stroke:#222222;stroke-width:1.5;"/><line style="stroke:#222222;stroke-width:2.5;" x1="422.8128" x2="435.1872" y1="969.6956" y2="982.07"/><line style="stroke:#222222;stroke-width:2.5;" x1="435.1872" x2="422.8128" y1="969.6956" y2="982.07"/><ellipse cx="429" cy="1006.8828" fill="none" rx="11" ry="11" style="stroke:#222222;stroke-width:1.0;"/><ellipse cx="429" cy="1006.8828" fill="#222222" rx="6" ry="6" style="stroke:#111111;stroke-width:1.0;"/><line style="stroke:#181818;stroke-width:1.0;" x1="429" x2="429" y1="30" y2="50"/><polygon fill="#181818" points="425,40,429,50,433,40,429,44" style="stroke:#181818;stroke-width:1.0;"/><line style="stroke:#181818;stroke-width:1.0;" x1="371.5" x2="121.5" y1="143.9063" y2="143.9063"/><line style="stroke:#181818;stroke-width:1.0;" x1="121.5" x2="121.5" y1="143.9063" y2="191.5156"/><polygon fill="#181818" points="117.5,181.5156,121.5,191.5156,125.5,181.5156,121.5,185.5156" style="stroke:#181818;stroke-width:1.0;"/><text fill="#000000" font-family="sans-serif" font-size="11" lengthAdjust="spacing" textLength="298" x="121.5" y="171.519">EFI_VARIABLE_AUTHENTICATION_3_TIMESTAMP_TYPE</text><line style="stroke:#181818;stroke-width:1.0;" x1="486.5" x2="573" y1="143.9063" y2="143.9063"/><line style="stroke:#181818;stroke-width:1.0;" x1="573" x2="573" y1="143.9063" y2="191.5156"/><polygon fill="#181818" points="569,181.5156,573,191.5156,577,181.5156,573,185.5156" style="stroke:#181818;stroke-width:1.0;"/><text fill="#000000" font-family="sans-serif" font-size="11" lengthAdjust="spacing" textLength="274" x="573" y="171.519">EFI_VARIABLE_AUTHENTICATION_3_NONCE_TYPE</text><line style="stroke:#181818;stroke-width:1.0;" x1="121.5" x2="121.5" y1="239.4531" y2="261.4531"/><line style="stroke:#181818;stroke-width:1.0;" x1="121.5" x2="417" y1="261.4531" y2="261.4531"/><polygon fill="#181818" points="407,257.4531,417,261.4531,407,265.4531,411,261.4531" style="stroke:#181818;stroke-width:1.0;"/><line style="stroke:#181818;stroke-width:1.0;" x1="573" x2="573" y1="239.4531" y2="261.4531"/><line style="stroke:#181818;stroke-width:1.0;" x1="573" x2="441" y1="261.4531" y2="261.4531"/><polygon fill="#181818" points="451,257.4531,441,261.4531,451,265.4531,447,261.4531" style="stroke:#181818;stroke-width:1.0;"/><line style="stroke:#181818;stroke-width:1.0;" x1="429" x2="429" y1="111.9063" y2="131.9063"/><polygon fill="#181818" points="425,121.9063,429,131.9063,433,121.9063,429,125.9063" style="stroke:#181818;stroke-width:1.0;"/><line style="stroke:#181818;stroke-width:1.0;" x1="429" x2="429" y1="317.4531" y2="341.8555"/><polygon fill="#181818" points="425,331.8555,429,341.8555,433,331.8555,429,335.8555" style="stroke:#181818;stroke-width:1.0;"/><line style="stroke:#181818;stroke-width:1.0;" x1="640.5" x2="652.5" y1="305.4531" y2="305.4531"/><polygon fill="#181818" points="648.5,348.8398,652.5,358.8398,656.5,348.8398,652.5,352.8398" style="stroke:#181818;stroke-width:1.0;"/><line style="stroke:#181818;stroke-width:1.0;" x1="652.5" x2="652.5" y1="305.4531" y2="407.8242"/><line style="stroke:#181818;stroke-width:1.0;" x1="652.5" x2="441" y1="407.8242" y2="407.8242"/><polygon fill="#181818" points="451,403.8242,441,407.8242,451,411.8242,447,407.8242" style="stroke:#181818;stroke-width:1.0;"/><line style="stroke:#181818;stroke-width:1.0;" x1="429" x2="429" y1="375.8242" y2="395.8242"/><polygon fill="#181818" points="425,385.8242,429,395.8242,433,385.8242,429,389.8242" style="stroke:#181818;stroke-width:1.0;"/><line style="stroke:#181818;stroke-width:1.0;" x1="429" x2="429" y1="273.4531" y2="293.4531"/><polygon fill="#181818" points="425,283.4531,429,293.4531,433,283.4531,429,287.4531" style="stroke:#181818;stroke-width:1.0;"/><line style="stroke:#181818;stroke-width:1.0;" x1="429" x2="429" y1="463.8242" y2="488.2266"/><polygon fill="#181818" points="425,478.2266,429,488.2266,433,478.2266,429,482.2266" style="stroke:#181818;stroke-width:1.0;"/><line style="stroke:#181818;stroke-width:1.0;" x1="732" x2="744" y1="451.8242" y2="451.8242"/><polygon fill="#181818" points="740,495.2109,744,505.2109,748,495.2109,744,499.2109" style="stroke:#181818;stroke-width:1.0;"/><line style="stroke:#181818;stroke-width:1.0;" x1="744" x2="744" y1="451.8242" y2="554.1953"/><line style="stroke:#181818;stroke-width:1.0;" x1="744" x2="441" y1="554.1953" y2="554.1953"/><polygon fill="#181818" points="451,550.1953,441,554.1953,451,558.1953,447,554.1953" style="stroke:#181818;stroke-width:1.0;"/><line style="stroke:#181818;stroke-width:1.0;" x1="429" x2="429" y1="522.1953" y2="542.1953"/><polygon fill="#181818" points="425,532.1953,429,542.1953,433,532.1953,429,536.1953" style="stroke:#181818;stroke-width:1.0;"/><line style="stroke:#181818;stroke-width:1.0;" x1="429" x2="429" y1="419.8242" y2="439.8242"/><polygon fill="#181818" points="425,429.8242,429,439.8242,433,429.8242,429,433.8242" style="stroke:#181818;stroke-width:1.0;"/><line style="stroke:#181818;stroke-width:1.0;" x1="429" x2="429" y1="566.1953" y2="586.1953"/><polygon fill="#181818" points="425,576.1953,429,586.1953,433,576.1953,429,580.1953" style="stroke:#181818;stroke-width:1.0;"/><line style="stroke:#181818;stroke-width:1.0;" x1="429" x2="429" y1="620.1641" y2="640.1641"/><polygon fill="#181818" points="425,630.1641,429,640.1641,433,630.1641,429,634.1641" style="stroke:#181818;stroke-width:1.0;"/><line style="stroke:#181818;stroke-width:1.0;" x1="429" x2="429" y1="674.1328" y2="694.1328"/><polygon fill="#181818" points="425,684.1328,429,694.1328,433,684.1328,429,688.1328" style="stroke:#181818;stroke-width:1.0;"/><line style="stroke:#181818;stroke-width:1.0;" x1="429" x2="429" y1="728.1016" y2="748.1016"/><polygon fill="#181818" points="425,738.1016,429,748.1016,433,738.1016,429,742.1016" style="stroke:#181818;stroke-width:1.0;"/><line style="stroke:#181818;stroke-width:1.0;" x1="429" x2="429" y1="796.0391" y2="816.0391"/><polygon fill="#181818" points="425,806.0391,429,816.0391,433,806.0391,429,810.0391" style="stroke:#181818;stroke-width:1.0;"/><line style="stroke:#181818;stroke-width:1.0;" x1="429" x2="429" y1="850.0078" y2="870.0078"/><polygon fill="#181818" points="425,860.0078,429,870.0078,433,860.0078,429,864.0078" style="stroke:#181818;stroke-width:1.0;"/><line style="stroke:#181818;stroke-width:1.0;" x1="429" x2="429" y1="945.8828" y2="965.8828"/><polygon fill="#181818" points="425,955.8828,429,965.8828,433,955.8828,429,959.8828" style="stroke:#181818;stroke-width:1.0;"/><!--MD5=[3e8eb5eba792631d6c6ef1e5651008da]
@startuml
skinparam defaultTextAlignment center
skinparam backgroundcolor transparent
start
:Create 
EFI_VARIABLE_AUTHENTICATION_3 
descriptor;
switch(Descriptor Type)
case (EFI_VARIABLE_AUTHENTICATION_3_TIMESTAMP_TYPE)
:Create SecondaryDescriptor with
EFI_TIME TimeStamp;
case (EFI_VARIABLE_AUTHENTICATION_3_NONCE_TYPE)
:Create SecondaryDescriptor with
EFI_VARIABLE_AUTHENTICATION_3_NONCE;
endswitch
if (update or deletion of EFI_VARIABLE_AUTHENTICATION_3_NONCE_TYPE) then (yes)
:AditionalContentToHash ||= NonceBufferOfExistingVariable;
else (no)
endif
if (EFI_VARIABLE_AUTHENTICATION_3.Flags == EFI_VARIABLE_ENHANCED_AUTH_FLAG_UPDATE_CERT 0x0) then (yes)
:AditionalContentToHash ||= NewCert;
else (no)
endif
:Hash(VariableName, VendorGuid, Attributes, SecondaryDescriptor, Variable_New_Content, AdditionalContentToHash);
:Sign digest;
:Create WIN_CERTIFICATE_UEFI_GUID.CertType = EFI_CERT_TYPE_PKCS7_GUID;
:Construct a DER-encoded SignedData structure
(PKCS#7 version 1.5 (RFC 2315));
:Update the EFI_VARIABLE_AUTHENTICATION_3.MetadataSize field;
:Concatenate serialized
EFI_VARIABLE_AUTHENTICATION_3
and
Variable_New_Content;
end
stop
@enduml

PlantUML version 1.2022.8beta11(Unknown compile time)
(GPL source distribution)
Java Runtime: Java(TM) SE Runtime Environment
JVM: Java HotSpot(TM) 64-Bit Server VM
Default Encoding: UTF-8
Language: en
Country: US
--></g></svg>